{
  "compilerOptions": {
    "baseUrl": ".",
    "paths": {
      "@/components/*": ["components/*"],
      "@/modules/*": ["modules/*"],
      "@/public/*": ["public/*"],
      "@/styles/*": ["styles/*"]
    }
  }
}